cpu_test.vcd
$date
	Mon Nov 24 19:59:16 2025
$end
$version
	Icarus Verilog
$end
$timescale
	1ps
$end
$scope module cpu_test $end
$var wire 1 ! reg_wr_out $end
$var wire 32 " pc_out [31:0] $end
$var reg 1 # clk $end
$var reg 1 $ reset $end
$scope module cpu $end
$var wire 1 # clk $end
$var wire 32 % pc_current_out [31:0] $end
$var wire 1 ! reg_write_en_out $end
$var wire 1 $ reset $end
$var wire 2 & wb_sel [1:0] $end
$var wire 5 ' rs2 [4:0] $end
$var wire 5 ( rs1 [4:0] $end
$var wire 32 ) rf_wd [31:0] $end
$var wire 32 * rf_rd2 [31:0] $end
$var wire 32 + rf_rd1 [31:0] $end
$var wire 1 , reg_write_en $end
$var wire 5 - rd [4:0] $end
$var wire 1 . pc_sel $end
$var wire 32 / pc_plus_4 [31:0] $end
$var wire 32 0 pc_current [31:0] $end
$var wire 7 1 opcode [6:0] $end
$var wire 1 2 mem_wr $end
$var wire 32 3 instruction [31:0] $end
$var wire 32 4 immediate [31:0] $end
$var wire 1 5 imm_sel $end
$var wire 7 6 funct7 [6:0] $end
$var wire 3 7 funct3 [2:0] $end
$var wire 32 8 dmem_read_data [31:0] $end
$var wire 1 9 br_un $end
$var wire 1 : br_l $end
$var wire 1 ; br_eq $end
$var wire 1 < b_sel $end
$var wire 1 = alu_zero $end
$var wire 4 > alu_sel [3:0] $end
$var wire 32 ? alu_result [31:0] $end
$var wire 32 @ alu_operand_b [31:0] $end
$var wire 32 A alu_operand_a [31:0] $end
$var wire 1 B a_sel $end
$scope module alu_inst $end
$var wire 32 C operand_a [31:0] $end
$var wire 32 D operand_b [31:0] $end
$var wire 1 = zero $end
$var wire 4 E alu_ctrl [3:0] $end
$var parameter 4 F ALU_ADD $end
$var parameter 4 G ALU_AND $end
$var parameter 4 H ALU_OR $end
$var parameter 4 I ALU_SLL $end
$var parameter 4 J ALU_SLT $end
$var parameter 4 K ALU_SLTU $end
$var parameter 4 L ALU_SRA $end
$var parameter 4 M ALU_SRL $end
$var parameter 4 N ALU_SUB $end
$var parameter 4 O ALU_XOR $end
$var reg 32 P result [31:0] $end
$upscope $end
$scope module bc_inst $end
$var wire 32 Q d2 [31:0] $end
$var wire 32 R d1 [31:0] $end
$var wire 1 9 br_un $end
$var reg 1 ; br_eq $end
$var reg 1 : br_l $end
$upscope $end
$scope module control_inst $end
$var wire 1 ; br_eq $end
$var wire 1 : br_l $end
$var wire 32 S inst [31:0] $end
$var reg 1 B a_sel $end
$var reg 4 T alu_sel [3:0] $end
$var reg 1 < b_sel $end
$var reg 1 9 br_un $end
$var reg 1 U check $end
$var reg 3 V funct3 [2:0] $end
$var reg 7 W funct7 [6:0] $end
$var reg 1 5 imm_sel $end
$var reg 1 2 mem_wr $end
$var reg 7 X opcode [6:0] $end
$var reg 1 . pc_sel $end
$var reg 5 Y rd [4:0] $end
$var reg 1 , reg_write_en $end
$var reg 5 Z rs1 [4:0] $end
$var reg 5 [ rs2 [4:0] $end
$var reg 2 \ wb_sel [1:0] $end
$upscope $end
$scope module dmem_inst $end
$var wire 32 ] addr [31:0] $end
$var wire 1 # clk $end
$var wire 1 2 mem_wr $end
$var wire 32 ^ write_data [31:0] $end
$var reg 32 _ read_data [31:0] $end
$upscope $end
$scope module imem_inst $end
$var wire 1 # clk $end
$var wire 32 ` addr [31:0] $end
$var reg 32 a inst [31:0] $end
$upscope $end
$scope module immgen_inst $end
$var wire 1 5 imm_sel $end
$var wire 32 b inst [31:0] $end
$var wire 7 c opcode [6:0] $end
$var reg 32 d imm [31:0] $end
$upscope $end
$scope module pc_inst $end
$var wire 32 e alu_out [31:0] $end
$var wire 1 # clk $end
$var wire 1 . pc_sel $end
$var wire 1 $ reset $end
$var reg 32 f next_pc [31:0] $end
$var reg 32 g pc [31:0] $end
$upscope $end
$scope module rf_inst $end
$var wire 1 # clk $end
$var wire 5 h rd [4:0] $end
$var wire 5 i rs1 [4:0] $end
$var wire 5 j rs2 [4:0] $end
$var wire 32 k wd [31:0] $end
$var wire 1 , we $end
$var wire 32 l rd2 [31:0] $end
$var wire 32 m rd1 [31:0] $end
$upscope $end
$upscope $end
$upscope $end
$enddefinitions $end
$comment Show the parameter values. $end
$dumpall
b100 O
b1 N
b1000 M
b1001 L
b110 K
b101 J
b111 I
b11 H
b10 G
b0 F
$end
#0
$dumpvars
bx m
bx l
bx k
bx j
bx i
bx h
b0 g
b100 f
bx e
bx d
bx c
bx b
bx a
b0 `
bx _
bx ^
bx ]
bx \
bx [
bx Z
bx Y
bx X
bx W
bx V
xU
bx T
bx S
bx R
bx Q
bx P
bx E
bx D
bx C
xB
bx A
bx @
bx ?
bx >
x=
x<
x;
x:
x9
bx 8
bx 7
bx 6
x5
bx 4
bx 3
x2
bx 1
b0 0
b100 /
x.
bx -
x,
bx +
bx *
bx )
bx (
bx '
bx &
b0 %
1$
0#
b0 "
x!
$end
#5
b0 )
b0 k
1=
b0 ?
b0 P
b0 ]
b0 e
b0 A
b0 C
0:
1;
b0 *
b0 Q
b0 ^
b0 l
b0 +
b0 R
b0 m
b0 @
b0 D
b1 &
b1 \
02
b0 >
b0 E
b0 T
0B
1<
09
15
1!
1,
0.
b0 6
b0 W
b0 '
b0 [
b0 j
b0 (
b0 Z
b0 i
b0 7
b0 V
b0 -
b0 Y
b0 h
b10011 1
b10011 X
b10011 c
b0 4
b0 d
b10011 3
b10011 S
b10011 a
b10011 b
1#
#10
0#
#15
1#
#20
0#
0$
#25
b1000 f
b1000 /
b100 "
b100 %
b100 0
b100 `
b100 g
1#
#30
0#
#35
b1100 f
b1100 /
b1000 "
b1000 %
b1000 0
b1000 `
b1000 g
1#
#40
0#
#45
b10000 )
b10000 k
0=
b1100 ?
b1100 P
b1100 ]
b1100 e
b1100 A
b1100 C
1.
1B
b10 &
b10 \
1<
15
1!
1,
b1101111 1
b1101111 X
b1101111 c
b1100 f
b1101111 3
b1101111 S
b1101111 a
b1101111 b
b10000 /
b1100 "
b1100 %
b1100 0
b1100 `
b1100 g
1#
#50
0#
#55
x=
bx ?
bx P
bx ]
bx e
bx @
bx D
x:
x;
bx )
bx k
bx A
bx C
b10000 f
bx *
bx Q
bx ^
bx l
bx +
bx R
bx m
b0 &
b0 \
0B
0<
05
0!
0,
0.
bx 6
bx W
bx '
bx [
bx j
bx (
bx Z
bx i
bx 7
bx V
bx -
bx Y
bx h
bx 1
bx X
bx c
b0 4
b0 d
bx 3
bx S
bx a
bx b
1#
#60
0#
#65
b10100 f
b10100 /
b10000 "
b10000 %
b10000 0
b10000 `
b10000 g
1#
#70
0#
#75
b11000 f
b11000 /
b10100 "
b10100 %
b10100 0
b10100 `
b10100 g
1#
#80
0#
#85
b11100 f
b11100 /
b11000 "
b11000 %
b11000 0
b11000 `
b11000 g
1#
#90
0#
#95
b100000 f
b100000 /
b11100 "
b11100 %
b11100 0
b11100 `
b11100 g
1#
#100
0#
#105
b100100 f
b100100 /
b100000 "
b100000 %
b100000 0
b100000 `
b100000 g
1#
#110
0#
#115
b101000 f
b101000 /
b100100 "
b100100 %
b100100 0
b100100 `
b100100 g
1#
#120
0#
#125
b101100 f
b101100 /
b101000 "
b101000 %
b101000 0
b101000 `
b101000 g
1#
#130
0#
#135
b110000 f
b110000 /
b101100 "
b101100 %
b101100 0
b101100 `
b101100 g
1#
#140
0#
#145
b110100 f
b110100 /
b110000 "
b110000 %
b110000 0
b110000 `
b110000 g
1#
#150
0#
#155
b111000 f
b111000 /
b110100 "
b110100 %
b110100 0
b110100 `
b110100 g
1#
#160
0#
#165
b111100 f
b111100 /
b111000 "
b111000 %
b111000 0
b111000 `
b111000 g
1#
#170
0#
#175
b1000000 f
b1000000 /
b111100 "
b111100 %
b111100 0
b111100 `
b111100 g
1#
#180
0#
#185
b1000100 f
b1000100 /
b1000000 "
b1000000 %
b1000000 0
b1000000 `
b1000000 g
1#
#190
0#
#195
b1001000 f
b1001000 /
b1000100 "
b1000100 %
b1000100 0
b1000100 `
b1000100 g
1#
#200
0#
#205
b1001100 f
b1001100 /
b1001000 "
b1001000 %
b1001000 0
b1001000 `
b1001000 g
1#
#210
0#
#215
b1010000 f
b1010000 /
b1001100 "
b1001100 %
b1001100 0
b1001100 `
b1001100 g
1#
#220
0#
#225
b1010100 f
b1010100 /
b1010000 "
b1010000 %
b1010000 0
b1010000 `
b1010000 g
1#
#230
0#
#235
b1011000 f
b1011000 /
b1010100 "
b1010100 %
b1010100 0
b1010100 `
b1010100 g
1#
#240
0#
#245
b1011100 f
b1011100 /
b1011000 "
b1011000 %
b1011000 0
b1011000 `
b1011000 g
1#
#250
0#
#255
b1100000 f
b1100000 /
b1011100 "
b1011100 %
b1011100 0
b1011100 `
b1011100 g
1#
#260
0#
#265
b1100100 f
b1100100 /
b1100000 "
b1100000 %
b1100000 0
b1100000 `
b1100000 g
1#
#270
0#
#275
b1101000 f
b1101000 /
b1100100 "
b1100100 %
b1100100 0
b1100100 `
b1100100 g
1#
#280
0#
#285
b1101100 f
b1101100 /
b1101000 "
b1101000 %
b1101000 0
b1101000 `
b1101000 g
1#
#290
0#
#295
b1110000 f
b1110000 /
b1101100 "
b1101100 %
b1101100 0
b1101100 `
b1101100 g
1#
#300
0#
#305
b1110100 f
b1110100 /
b1110000 "
b1110000 %
b1110000 0
b1110000 `
b1110000 g
1#
#310
0#
#315
b1111000 f
b1111000 /
b1110100 "
b1110100 %
b1110100 0
b1110100 `
b1110100 g
1#
#320
0#
#325
b1111100 f
b1111100 /
b1111000 "
b1111000 %
b1111000 0
b1111000 `
b1111000 g
1#
#330
0#
#335
b10000000 f
b10000000 /
b1111100 "
b1111100 %
b1111100 0
b1111100 `
b1111100 g
1#
#340
0#
#345
b10000100 f
b10000100 /
b10000000 "
b10000000 %
b10000000 0
b10000000 `
b10000000 g
1#
#350
0#
#355
b10001000 f
b10001000 /
b10000100 "
b10000100 %
b10000100 0
b10000100 `
b10000100 g
1#
#360
0#
#365
b10001100 f
b10001100 /
b10001000 "
b10001000 %
b10001000 0
b10001000 `
b10001000 g
1#
#370
0#
#375
b10010000 f
b10010000 /
b10001100 "
b10001100 %
b10001100 0
b10001100 `
b10001100 g
1#
#380
0#
#385
b10010100 f
b10010100 /
b10010000 "
b10010000 %
b10010000 0
b10010000 `
b10010000 g
1#
#390
0#
#395
b10011000 f
b10011000 /
b10010100 "
b10010100 %
b10010100 0
b10010100 `
b10010100 g
1#
#400
0#
#405
b10011100 f
b10011100 /
b10011000 "
b10011000 %
b10011000 0
b10011000 `
b10011000 g
1#
#410
0#
#415
b10100000 f
b10100000 /
b10011100 "
b10011100 %
b10011100 0
b10011100 `
b10011100 g
1#
#420
0#
#425
b10100100 f
b10100100 /
b10100000 "
b10100000 %
b10100000 0
b10100000 `
b10100000 g
1#
#430
0#
#435
b10101000 f
b10101000 /
b10100100 "
b10100100 %
b10100100 0
b10100100 `
b10100100 g
1#
#440
0#
#445
b10101100 f
b10101100 /
b10101000 "
b10101000 %
b10101000 0
b10101000 `
b10101000 g
1#
#450
0#
#455
b10110000 f
b10110000 /
b10101100 "
b10101100 %
b10101100 0
b10101100 `
b10101100 g
1#
#460
0#
#465
b10110100 f
b10110100 /
b10110000 "
b10110000 %
b10110000 0
b10110000 `
b10110000 g
1#
#470
0#
#475
b10111000 f
b10111000 /
b10110100 "
b10110100 %
b10110100 0
b10110100 `
b10110100 g
1#
#480
0#
#485
b10111100 f
b10111100 /
b10111000 "
b10111000 %
b10111000 0
b10111000 `
b10111000 g
1#
#490
0#
#495
b11000000 f
b11000000 /
b10111100 "
b10111100 %
b10111100 0
b10111100 `
b10111100 g
1#
#500
0#
#505
b11000100 f
b11000100 /
b11000000 "
b11000000 %
b11000000 0
b11000000 `
b11000000 g
1#
#510
0#
#515
b11001000 f
b11001000 /
b11000100 "
b11000100 %
b11000100 0
b11000100 `
b11000100 g
1#
#520
0#
#525
b11001100 f
b11001100 /
b11001000 "
b11001000 %
b11001000 0
b11001000 `
b11001000 g
1#
#530
0#
#535
b11010000 f
b11010000 /
b11001100 "
b11001100 %
b11001100 0
b11001100 `
b11001100 g
1#
#540
0#
#545
b11010100 f
b11010100 /
b11010000 "
b11010000 %
b11010000 0
b11010000 `
b11010000 g
1#
#550
0#
#555
b11011000 f
b11011000 /
b11010100 "
b11010100 %
b11010100 0
b11010100 `
b11010100 g
1#
#560
0#
#565
b11011100 f
b11011100 /
b11011000 "
b11011000 %
b11011000 0
b11011000 `
b11011000 g
1#
#570
0#
#575
b11100000 f
b11100000 /
b11011100 "
b11011100 %
b11011100 0
b11011100 `
b11011100 g
1#
#580
0#
#585
b11100100 f
b11100100 /
b11100000 "
b11100000 %
b11100000 0
b11100000 `
b11100000 g
1#
#590
0#
#595
b11101000 f
b11101000 /
b11100100 "
b11100100 %
b11100100 0
b11100100 `
b11100100 g
1#
#600
0#
#605
b11101100 f
b11101100 /
b11101000 "
b11101000 %
b11101000 0
b11101000 `
b11101000 g
1#
#610
0#
#615
b11110000 f
b11110000 /
b11101100 "
b11101100 %
b11101100 0
b11101100 `
b11101100 g
1#
#620
0#
#625
b11110100 f
b11110100 /
b11110000 "
b11110000 %
b11110000 0
b11110000 `
b11110000 g
1#
#630
0#
#635
b11111000 f
b11111000 /
b11110100 "
b11110100 %
b11110100 0
b11110100 `
b11110100 g
1#
#640
0#
#645
b11111100 f
b11111100 /
b11111000 "
b11111000 %
b11111000 0
b11111000 `
b11111000 g
1#
#650
0#
#655
b100000000 f
b100000000 /
b11111100 "
b11111100 %
b11111100 0
b11111100 `
b11111100 g
1#
#660
0#
#665
b100000100 f
b100000100 /
b100000000 "
b100000000 %
b100000000 0
b100000000 `
b100000000 g
1#
#670
0#
#675
b100001000 f
b100001000 /
b100000100 "
b100000100 %
b100000100 0
b100000100 `
b100000100 g
1#
#680
0#
#685
b100001100 f
b100001100 /
b100001000 "
b100001000 %
b100001000 0
b100001000 `
b100001000 g
1#
#690
0#
#695
b100010000 f
b100010000 /
b100001100 "
b100001100 %
b100001100 0
b100001100 `
b100001100 g
1#
#700
0#
#705
b100010100 f
b100010100 /
b100010000 "
b100010000 %
b100010000 0
b100010000 `
b100010000 g
1#
#710
0#
#715
b100011000 f
b100011000 /
b100010100 "
b100010100 %
b100010100 0
b100010100 `
b100010100 g
1#
#720
0#
#725
b100011100 f
b100011100 /
b100011000 "
b100011000 %
b100011000 0
b100011000 `
b100011000 g
1#
#730
0#
#735
b100100000 f
b100100000 /
b100011100 "
b100011100 %
b100011100 0
b100011100 `
b100011100 g
1#
#740
0#
#745
b100100100 f
b100100100 /
b100100000 "
b100100000 %
b100100000 0
b100100000 `
b100100000 g
1#
#750
0#
#755
b100101000 f
b100101000 /
b100100100 "
b100100100 %
b100100100 0
b100100100 `
b100100100 g
1#
#760
0#
#765
b100101100 f
b100101100 /
b100101000 "
b100101000 %
b100101000 0
b100101000 `
b100101000 g
1#
#770
0#
#775
b100110000 f
b100110000 /
b100101100 "
b100101100 %
b100101100 0
b100101100 `
b100101100 g
1#
#780
0#
#785
b100110100 f
b100110100 /
b100110000 "
b100110000 %
b100110000 0
b100110000 `
b100110000 g
1#
#790
0#
#795
b100111000 f
b100111000 /
b100110100 "
b100110100 %
b100110100 0
b100110100 `
b100110100 g
1#
#800
0#
#805
b100111100 f
b100111100 /
b100111000 "
b100111000 %
b100111000 0
b100111000 `
b100111000 g
1#
#810
0#
#815
b101000000 f
b101000000 /
b100111100 "
b100111100 %
b100111100 0
b100111100 `
b100111100 g
1#
#820
0#
#825
b101000100 f
b101000100 /
b101000000 "
b101000000 %
b101000000 0
b101000000 `
b101000000 g
1#
#830
0#
#835
b101001000 f
b101001000 /
b101000100 "
b101000100 %
b101000100 0
b101000100 `
b101000100 g
1#
#840
0#
#845
b101001100 f
b101001100 /
b101001000 "
b101001000 %
b101001000 0
b101001000 `
b101001000 g
1#
#850
0#
#855
b101010000 f
b101010000 /
b101001100 "
b101001100 %
b101001100 0
b101001100 `
b101001100 g
1#
#860
0#
#865
b101010100 f
b101010100 /
b101010000 "
b101010000 %
b101010000 0
b101010000 `
b101010000 g
1#
#870
0#
#875
b101011000 f
b101011000 /
b101010100 "
b101010100 %
b101010100 0
b101010100 `
b101010100 g
1#
#880
0#
#885
b101011100 f
b101011100 /
b101011000 "
b101011000 %
b101011000 0
b101011000 `
b101011000 g
1#
#890
0#
#895
b101100000 f
b101100000 /
b101011100 "
b101011100 %
b101011100 0
b101011100 `
b101011100 g
1#
#900
0#
#905
b101100100 f
b101100100 /
b101100000 "
b101100000 %
b101100000 0
b101100000 `
b101100000 g
1#
#910
0#
#915
b101101000 f
b101101000 /
b101100100 "
b101100100 %
b101100100 0
b101100100 `
b101100100 g
1#
#920
0#
#925
b101101100 f
b101101100 /
b101101000 "
b101101000 %
b101101000 0
b101101000 `
b101101000 g
1#
#930
0#
#935
b101110000 f
b101110000 /
b101101100 "
b101101100 %
b101101100 0
b101101100 `
b101101100 g
1#
#940
0#
#945
b101110100 f
b101110100 /
b101110000 "
b101110000 %
b101110000 0
b101110000 `
b101110000 g
1#
#950
0#
#955
b101111000 f
b101111000 /
b101110100 "
b101110100 %
b101110100 0
b101110100 `
b101110100 g
1#
#960
0#
#965
b101111100 f
b101111100 /
b101111000 "
b101111000 %
b101111000 0
b101111000 `
b101111000 g
1#
#970
0#
#975
b110000000 f
b110000000 /
b101111100 "
b101111100 %
b101111100 0
b101111100 `
b101111100 g
1#
#980
0#
#985
b110000100 f
b110000100 /
b110000000 "
b110000000 %
b110000000 0
b110000000 `
b110000000 g
1#
#990
0#
#995
b110001000 f
b110001000 /
b110000100 "
b110000100 %
b110000100 0
b110000100 `
b110000100 g
1#
#1000
0#
#1005
b110001100 f
b110001100 /
b110001000 "
b110001000 %
b110001000 0
b110001000 `
b110001000 g
1#
#1010
0#
#1015
b110010000 f
b110010000 /
b110001100 "
b110001100 %
b110001100 0
b110001100 `
b110001100 g
1#
#1020
0#
#1025
b110010100 f
b110010100 /
b110010000 "
b110010000 %
b110010000 0
b110010000 `
b110010000 g
1#
#1030
0#
#1035
b110011000 f
b110011000 /
b110010100 "
b110010100 %
b110010100 0
b110010100 `
b110010100 g
1#
#1040
0#
#1045
b110011100 f
b110011100 /
b110011000 "
b110011000 %
b110011000 0
b110011000 `
b110011000 g
1#
#1050
0#
#1055
b110100000 f
b110100000 /
b110011100 "
b110011100 %
b110011100 0
b110011100 `
b110011100 g
1#
#1060
0#
#1065
b110100100 f
b110100100 /
b110100000 "
b110100000 %
b110100000 0
b110100000 `
b110100000 g
1#
#1070
0#
#1075
b110101000 f
b110101000 /
b110100100 "
b110100100 %
b110100100 0
b110100100 `
b110100100 g
1#
#1080
0#
#1085
b110101100 f
b110101100 /
b110101000 "
b110101000 %
b110101000 0
b110101000 `
b110101000 g
1#
#1090
0#
#1095
b110110000 f
b110110000 /
b110101100 "
b110101100 %
b110101100 0
b110101100 `
b110101100 g
1#
#1100
0#
#1105
b110110100 f
b110110100 /
b110110000 "
b110110000 %
b110110000 0
b110110000 `
b110110000 g
1#
#1110
0#
#1115
b110111000 f
b110111000 /
b110110100 "
b110110100 %
b110110100 0
b110110100 `
b110110100 g
1#
#1120
0#
#1125
b110111100 f
b110111100 /
b110111000 "
b110111000 %
b110111000 0
b110111000 `
b110111000 g
1#
#1130
0#
#1135
b111000000 f
b111000000 /
b110111100 "
b110111100 %
b110111100 0
b110111100 `
b110111100 g
1#
#1140
0#
#1145
b111000100 f
b111000100 /
b111000000 "
b111000000 %
b111000000 0
b111000000 `
b111000000 g
1#
#1150
0#
#1155
b111001000 f
b111001000 /
b111000100 "
b111000100 %
b111000100 0
b111000100 `
b111000100 g
1#
#1160
0#
#1165
b111001100 f
b111001100 /
b111001000 "
b111001000 %
b111001000 0
b111001000 `
b111001000 g
1#
#1170
0#
#1175
b111010000 f
b111010000 /
b111001100 "
b111001100 %
b111001100 0
b111001100 `
b111001100 g
1#
#1180
0#
#1185
b111010100 f
b111010100 /
b111010000 "
b111010000 %
b111010000 0
b111010000 `
b111010000 g
1#
#1190
0#
#1195
b111011000 f
b111011000 /
b111010100 "
b111010100 %
b111010100 0
b111010100 `
b111010100 g
1#
#1200
0#
#1205
b111011100 f
b111011100 /
b111011000 "
b111011000 %
b111011000 0
b111011000 `
b111011000 g
1#
#1210
0#
#1215
b111100000 f
b111100000 /
b111011100 "
b111011100 %
b111011100 0
b111011100 `
b111011100 g
1#
#1220
0#
#1225
b111100100 f
b111100100 /
b111100000 "
b111100000 %
b111100000 0
b111100000 `
b111100000 g
1#
#1230
0#
#1235
b111101000 f
b111101000 /
b111100100 "
b111100100 %
b111100100 0
b111100100 `
b111100100 g
1#
#1240
0#
#1245
b111101100 f
b111101100 /
b111101000 "
b111101000 %
b111101000 0
b111101000 `
b111101000 g
1#
#1250
0#
#1255
b111110000 f
b111110000 /
b111101100 "
b111101100 %
b111101100 0
b111101100 `
b111101100 g
1#
#1260
0#
#1265
b111110100 f
b111110100 /
b111110000 "
b111110000 %
b111110000 0
b111110000 `
b111110000 g
1#
#1270
0#
#1275
b111111000 f
b111111000 /
b111110100 "
b111110100 %
b111110100 0
b111110100 `
b111110100 g
1#
#1280
0#
#1285
b111111100 f
b111111100 /
b111111000 "
b111111000 %
b111111000 0
b111111000 `
b111111000 g
1#
#1290
0#
#1295
b1000000000 f
b1000000000 /
b111111100 "
b111111100 %
b111111100 0
b111111100 `
b111111100 g
1#
#1300
0#
#1305
b1000000100 f
b1000000100 /
b1000000000 "
b1000000000 %
b1000000000 0
b1000000000 `
b1000000000 g
1#
#1310
0#
#1315
b1000001000 f
b1000001000 /
b1000000100 "
b1000000100 %
b1000000100 0
b1000000100 `
b1000000100 g
1#
#1320
0#
#1325
b1000001100 f
b1000001100 /
b1000001000 "
b1000001000 %
b1000001000 0
b1000001000 `
b1000001000 g
1#
#1330
0#
#1335
b1000010000 f
b1000010000 /
b1000001100 "
b1000001100 %
b1000001100 0
b1000001100 `
b1000001100 g
1#
#1340
0#
#1345
b1000010100 f
b1000010100 /
b1000010000 "
b1000010000 %
b1000010000 0
b1000010000 `
b1000010000 g
1#
#1350
0#
#1355
b1000011000 f
b1000011000 /
b1000010100 "
b1000010100 %
b1000010100 0
b1000010100 `
b1000010100 g
1#
#1360
0#
#1365
b1000011100 f
b1000011100 /
b1000011000 "
b1000011000 %
b1000011000 0
b1000011000 `
b1000011000 g
1#
#1370
0#
#1375
b1000100000 f
b1000100000 /
b1000011100 "
b1000011100 %
b1000011100 0
b1000011100 `
b1000011100 g
1#
#1380
0#
#1385
b1000100100 f
b1000100100 /
b1000100000 "
b1000100000 %
b1000100000 0
b1000100000 `
b1000100000 g
1#
#1390
0#
#1395
b1000101000 f
b1000101000 /
b1000100100 "
b1000100100 %
b1000100100 0
b1000100100 `
b1000100100 g
1#
#1400
0#
#1405
b1000101100 f
b1000101100 /
b1000101000 "
b1000101000 %
b1000101000 0
b1000101000 `
b1000101000 g
1#
#1410
0#
#1415
b1000110000 f
b1000110000 /
b1000101100 "
b1000101100 %
b1000101100 0
b1000101100 `
b1000101100 g
1#
#1420
0#
#1425
b1000110100 f
b1000110100 /
b1000110000 "
b1000110000 %
b1000110000 0
b1000110000 `
b1000110000 g
1#
#1430
0#
#1435
b1000111000 f
b1000111000 /
b1000110100 "
b1000110100 %
b1000110100 0
b1000110100 `
b1000110100 g
1#
#1440
0#
#1445
b1000111100 f
b1000111100 /
b1000111000 "
b1000111000 %
b1000111000 0
b1000111000 `
b1000111000 g
1#
#1450
0#
#1455
b1001000000 f
b1001000000 /
b1000111100 "
b1000111100 %
b1000111100 0
b1000111100 `
b1000111100 g
1#
#1460
0#
#1465
b1001000100 f
b1001000100 /
b1001000000 "
b1001000000 %
b1001000000 0
b1001000000 `
b1001000000 g
1#
#1470
0#
#1475
b1001001000 f
b1001001000 /
b1001000100 "
b1001000100 %
b1001000100 0
b1001000100 `
b1001000100 g
1#
#1480
0#
#1485
b1001001100 f
b1001001100 /
b1001001000 "
b1001001000 %
b1001001000 0
b1001001000 `
b1001001000 g
1#
#1490
0#
#1495
b1001010000 f
b1001010000 /
b1001001100 "
b1001001100 %
b1001001100 0
b1001001100 `
b1001001100 g
1#
#1500
0#
#1505
b1001010100 f
b1001010100 /
b1001010000 "
b1001010000 %
b1001010000 0
b1001010000 `
b1001010000 g
1#
#1510
0#
#1515
b1001011000 f
b1001011000 /
b1001010100 "
b1001010100 %
b1001010100 0
b1001010100 `
b1001010100 g
1#
#1520
0#
#1525
b1001011100 f
b1001011100 /
b1001011000 "
b1001011000 %
b1001011000 0
b1001011000 `
b1001011000 g
1#
#1530
0#
#1535
b1001100000 f
b1001100000 /
b1001011100 "
b1001011100 %
b1001011100 0
b1001011100 `
b1001011100 g
1#
#1540
0#
#1545
b1001100100 f
b1001100100 /
b1001100000 "
b1001100000 %
b1001100000 0
b1001100000 `
b1001100000 g
1#
#1550
0#
#1555
b1001101000 f
b1001101000 /
b1001100100 "
b1001100100 %
b1001100100 0
b1001100100 `
b1001100100 g
1#
#1560
0#
#1565
b1001101100 f
b1001101100 /
b1001101000 "
b1001101000 %
b1001101000 0
b1001101000 `
b1001101000 g
1#
#1570
0#
#1575
b1001110000 f
b1001110000 /
b1001101100 "
b1001101100 %
b1001101100 0
b1001101100 `
b1001101100 g
1#
#1580
0#
#1585
b1001110100 f
b1001110100 /
b1001110000 "
b1001110000 %
b1001110000 0
b1001110000 `
b1001110000 g
1#
#1590
0#
#1595
b1001111000 f
b1001111000 /
b1001110100 "
b1001110100 %
b1001110100 0
b1001110100 `
b1001110100 g
1#
#1600
0#
#1605
b1001111100 f
b1001111100 /
b1001111000 "
b1001111000 %
b1001111000 0
b1001111000 `
b1001111000 g
1#
#1610
0#
#1615
b1010000000 f
b1010000000 /
b1001111100 "
b1001111100 %
b1001111100 0
b1001111100 `
b1001111100 g
1#
#1620
0#
#1625
b1010000100 f
b1010000100 /
b1010000000 "
b1010000000 %
b1010000000 0
b1010000000 `
b1010000000 g
1#
#1630
0#
#1635
b1010001000 f
b1010001000 /
b1010000100 "
b1010000100 %
b1010000100 0
b1010000100 `
b1010000100 g
1#
#1640
0#
#1645
b1010001100 f
b1010001100 /
b1010001000 "
b1010001000 %
b1010001000 0
b1010001000 `
b1010001000 g
1#
#1650
0#
#1655
b1010010000 f
b1010010000 /
b1010001100 "
b1010001100 %
b1010001100 0
b1010001100 `
b1010001100 g
1#
#1660
0#
#1665
b1010010100 f
b1010010100 /
b1010010000 "
b1010010000 %
b1010010000 0
b1010010000 `
b1010010000 g
1#
#1670
0#
#1675
b1010011000 f
b1010011000 /
b1010010100 "
b1010010100 %
b1010010100 0
b1010010100 `
b1010010100 g
1#
#1680
0#
#1685
b1010011100 f
b1010011100 /
b1010011000 "
b1010011000 %
b1010011000 0
b1010011000 `
b1010011000 g
1#
#1690
0#
#1695
b1010100000 f
b1010100000 /
b1010011100 "
b1010011100 %
b1010011100 0
b1010011100 `
b1010011100 g
1#
#1700
0#
#1705
b1010100100 f
b1010100100 /
b1010100000 "
b1010100000 %
b1010100000 0
b1010100000 `
b1010100000 g
1#
#1710
0#
#1715
b1010101000 f
b1010101000 /
b1010100100 "
b1010100100 %
b1010100100 0
b1010100100 `
b1010100100 g
1#
#1720
0#
#1725
b1010101100 f
b1010101100 /
b1010101000 "
b1010101000 %
b1010101000 0
b1010101000 `
b1010101000 g
1#
#1730
0#
#1735
b1010110000 f
b1010110000 /
b1010101100 "
b1010101100 %
b1010101100 0
b1010101100 `
b1010101100 g
1#
#1740
0#
#1745
b1010110100 f
b1010110100 /
b1010110000 "
b1010110000 %
b1010110000 0
b1010110000 `
b1010110000 g
1#
#1750
0#
#1755
b1010111000 f
b1010111000 /
b1010110100 "
b1010110100 %
b1010110100 0
b1010110100 `
b1010110100 g
1#
#1760
0#
#1765
b1010111100 f
b1010111100 /
b1010111000 "
b1010111000 %
b1010111000 0
b1010111000 `
b1010111000 g
1#
#1770
0#
#1775
b1011000000 f
b1011000000 /
b1010111100 "
b1010111100 %
b1010111100 0
b1010111100 `
b1010111100 g
1#
#1780
0#
#1785
b1011000100 f
b1011000100 /
b1011000000 "
b1011000000 %
b1011000000 0
b1011000000 `
b1011000000 g
1#
#1790
0#
#1795
b1011001000 f
b1011001000 /
b1011000100 "
b1011000100 %
b1011000100 0
b1011000100 `
b1011000100 g
1#
#1800
0#
#1805
b1011001100 f
b1011001100 /
b1011001000 "
b1011001000 %
b1011001000 0
b1011001000 `
b1011001000 g
1#
#1810
0#
#1815
b1011010000 f
b1011010000 /
b1011001100 "
b1011001100 %
b1011001100 0
b1011001100 `
b1011001100 g
1#
#1820
0#
#1825
b1011010100 f
b1011010100 /
b1011010000 "
b1011010000 %
b1011010000 0
b1011010000 `
b1011010000 g
1#
#1830
0#
#1835
b1011011000 f
b1011011000 /
b1011010100 "
b1011010100 %
b1011010100 0
b1011010100 `
b1011010100 g
1#
#1840
0#
#1845
b1011011100 f
b1011011100 /
b1011011000 "
b1011011000 %
b1011011000 0
b1011011000 `
b1011011000 g
1#
#1850
0#
#1855
b1011100000 f
b1011100000 /
b1011011100 "
b1011011100 %
b1011011100 0
b1011011100 `
b1011011100 g
1#
#1860
0#
#1865
b1011100100 f
b1011100100 /
b1011100000 "
b1011100000 %
b1011100000 0
b1011100000 `
b1011100000 g
1#
#1870
0#
#1875
b1011101000 f
b1011101000 /
b1011100100 "
b1011100100 %
b1011100100 0
b1011100100 `
b1011100100 g
1#
#1880
0#
#1885
b1011101100 f
b1011101100 /
b1011101000 "
b1011101000 %
b1011101000 0
b1011101000 `
b1011101000 g
1#
#1890
0#
